<?xml version="1.0" encoding="UTF-8" standalone="no"?><svg xmlns="http://www.w3.org/2000/svg" xmlns:xlink="http://www.w3.org/1999/xlink" contentScriptType="application/ecmascript" contentStyleType="text/css" height="126px" preserveAspectRatio="none" style="width:359px;height:126px;" version="1.1" viewBox="0 0 359 126" width="359px" zoomAndPan="magnify"><defs><filter height="300%" id="f15puc0wi687he" width="300%" x="-1" y="-1"><feGaussianBlur result="blurOut" stdDeviation="2.0"/><feColorMatrix in="blurOut" result="blurOut2" type="matrix" values="0 0 0 0 0 0 0 0 0 0 0 0 0 0 0 0 0 0 .4 0"/><feOffset dx="4.0" dy="4.0" in="blurOut2" result="blurOut3"/><feBlend in="SourceGraphic" in2="blurOut3" mode="normal"/></filter></defs><g><line style="stroke: #A80036; stroke-width: 1.0; stroke-dasharray: 5.0,5.0;" x1="57" x2="57" y1="38.2969" y2="86.2969"/><line style="stroke: #A80036; stroke-width: 1.0; stroke-dasharray: 5.0,5.0;" x1="177" x2="177" y1="38.2969" y2="86.2969"/><line style="stroke: #A80036; stroke-width: 1.0; stroke-dasharray: 5.0,5.0;" x1="300" x2="300" y1="38.2969" y2="86.2969"/><rect fill="#FEFECE" filter="url(#f15puc0wi687he)" height="30.2969" style="stroke: #A80036; stroke-width: 1.5;" width="94" x="8" y="3"/><text fill="#000000" font-family="sans-serif" font-size="14" lengthAdjust="spacingAndGlyphs" textLength="80" x="15" y="22.9951">First Activity</text><rect fill="#FEFECE" filter="url(#f15puc0wi687he)" height="30.2969" style="stroke: #A80036; stroke-width: 1.5;" width="94" x="8" y="85.2969"/><text fill="#000000" font-family="sans-serif" font-size="14" lengthAdjust="spacingAndGlyphs" textLength="80" x="15" y="105.292">First Activity</text><rect fill="#FEFECE" filter="url(#f15puc0wi687he)" height="30.2969" style="stroke: #A80036; stroke-width: 1.5;" width="118" x="116" y="3"/><text fill="#000000" font-family="sans-serif" font-size="14" lengthAdjust="spacingAndGlyphs" textLength="104" x="123" y="22.9951">Second Activity</text><rect fill="#FEFECE" filter="url(#f15puc0wi687he)" height="30.2969" style="stroke: #A80036; stroke-width: 1.5;" width="118" x="116" y="85.2969"/><text fill="#000000" font-family="sans-serif" font-size="14" lengthAdjust="spacingAndGlyphs" textLength="104" x="123" y="105.292">Second Activity</text><rect fill="#FEFECE" filter="url(#f15puc0wi687he)" height="30.2969" style="stroke: #A80036; stroke-width: 1.5;" width="100" x="248" y="3"/><text fill="#000000" font-family="sans-serif" font-size="14" lengthAdjust="spacingAndGlyphs" textLength="86" x="255" y="22.9951">Third Activity</text><rect fill="#FEFECE" filter="url(#f15puc0wi687he)" height="30.2969" style="stroke: #A80036; stroke-width: 1.5;" width="100" x="248" y="85.2969"/><text fill="#000000" font-family="sans-serif" font-size="14" lengthAdjust="spacingAndGlyphs" textLength="86" x="255" y="105.292">Third Activity</text><polygon fill="#A80036" points="165,50.2969,175,54.2969,165,58.2969,169,54.2969" style="stroke: #A80036; stroke-width: 1.0;"/><line style="stroke: #A80036; stroke-width: 1.0;" x1="57" x2="171" y1="54.2969" y2="54.2969"/><polygon fill="#A80036" points="288,64.2969,298,68.2969,288,72.2969,292,68.2969" style="stroke: #A80036; stroke-width: 1.0;"/><line style="stroke: #A80036; stroke-width: 1.0;" x1="3" x2="294" y1="68.2969" y2="68.2969"/><!--
@startuml
"First Activity" -> "Second Activity"
-> "Third Activity"
@enduml

PlantUML version 1.2018.14(Fri Dec 21 11:33:16 EST 2018)
(GPL source distribution)
Java Runtime: OpenJDK Runtime Environment
JVM: OpenJDK 64-Bit Server VM
Java Version: 1.8.0_91-b14
Operating System: Linux
OS Version: 2.6.32-642.6.2.el6.x86_64
Default Encoding: UTF-8
Language: en
Country: US
--></g></svg>