<?xml version="1.0" encoding="UTF-8" standalone="no"?><svg xmlns="http://www.w3.org/2000/svg" xmlns:xlink="http://www.w3.org/1999/xlink" contentScriptType="application/ecmascript" contentStyleType="text/css" height="577px" preserveAspectRatio="none" style="width:1463px;height:577px;" version="1.1" viewBox="0 0 1463 577" width="1463px" zoomAndPan="magnify"><defs><filter height="300%" id="fbg13eahxc17u" width="300%" x="-1" y="-1"><feGaussianBlur result="blurOut" stdDeviation="2.0"/><feColorMatrix in="blurOut" result="blurOut2" type="matrix" values="0 0 0 0 0 0 0 0 0 0 0 0 0 0 0 0 0 0 .4 0"/><feOffset dx="4.0" dy="4.0" in="blurOut2" result="blurOut3"/><feBlend in="SourceGraphic" in2="blurOut3" mode="normal"/></filter></defs><g><rect fill="#FFFFFF" filter="url(#fbg13eahxc17u)" height="29.1328" style="stroke: #A80036; stroke-width: 1.0;" width="10" x="462" y="146.5625"/><rect fill="#FFFFFF" filter="url(#fbg13eahxc17u)" height="29.1328" style="stroke: #A80036; stroke-width: 1.0;" width="10" x="462" y="330.2266"/><rect fill="#FFFFFF" filter="url(#fbg13eahxc17u)" height="29.1328" style="stroke: #A80036; stroke-width: 1.0;" width="10" x="683" y="175.6953"/><rect fill="#FFFFFF" filter="url(#fbg13eahxc17u)" height="237.7969" style="stroke: #A80036; stroke-width: 1.0;" width="10" x="1017" y="204.8281"/><rect fill="#FFFFFF" filter="url(#fbg13eahxc17u)" height="179.5313" style="stroke: #A80036; stroke-width: 1.0;" width="10" x="1287" y="233.9609"/><rect fill="#FFFFFF" filter="url(#fbg13eahxc17u)" height="63.3984" style="stroke: #A80036; stroke-width: 1.0;" width="10" x="1292" y="295.9609"/><line style="stroke: #A80036; stroke-width: 1.0; stroke-dasharray: 5.0,5.0;" x1="25" x2="25" y1="86.2969" y2="489.7578"/><line style="stroke: #A80036; stroke-width: 1.0; stroke-dasharray: 5.0,5.0;" x1="293" x2="293" y1="86.2969" y2="489.7578"/><line style="stroke: #A80036; stroke-width: 1.0; stroke-dasharray: 5.0,5.0;" x1="467" x2="467" y1="86.2969" y2="489.7578"/><line style="stroke: #A80036; stroke-width: 1.0; stroke-dasharray: 5.0,5.0;" x1="688" x2="688" y1="86.2969" y2="489.7578"/><line style="stroke: #A80036; stroke-width: 1.0; stroke-dasharray: 5.0,5.0;" x1="1021.5" x2="1021.5" y1="86.2969" y2="489.7578"/><line style="stroke: #A80036; stroke-width: 1.0; stroke-dasharray: 5.0,5.0;" x1="1292" x2="1292" y1="86.2969" y2="489.7578"/><text fill="#000000" font-family="sans-serif" font-size="14" lengthAdjust="spacingAndGlyphs" textLength="28" x="8" y="82.9951">Bob</text><ellipse cx="25" cy="13" fill="#FEFECE" filter="url(#fbg13eahxc17u)" rx="8" ry="8" style="stroke: #A80036; stroke-width: 2.0;"/><path d="M25,21 L25,48 M12,29 L38,29 M25,48 L12,63 M25,48 L38,63 " fill="none" filter="url(#fbg13eahxc17u)" style="stroke: #A80036; stroke-width: 2.0;"/><text fill="#000000" font-family="sans-serif" font-size="14" lengthAdjust="spacingAndGlyphs" textLength="28" x="8" y="501.7529">Bob</text><ellipse cx="25" cy="515.0547" fill="#FEFECE" filter="url(#fbg13eahxc17u)" rx="8" ry="8" style="stroke: #A80036; stroke-width: 2.0;"/><path d="M25,523.0547 L25,550.0547 M12,531.0547 L38,531.0547 M25,550.0547 L12,565.0547 M25,550.0547 L38,565.0547 " fill="none" filter="url(#fbg13eahxc17u)" style="stroke: #A80036; stroke-width: 2.0;"/><rect fill="#FEFECE" filter="url(#fbg13eahxc17u)" height="30.2969" style="stroke: #A80036; stroke-width: 1.5;" width="70" x="256" y="51"/><text fill="#000000" font-family="sans-serif" font-size="14" lengthAdjust="spacingAndGlyphs" textLength="56" x="263" y="70.9951">Website</text><rect fill="#FEFECE" filter="url(#fbg13eahxc17u)" height="30.2969" style="stroke: #A80036; stroke-width: 1.5;" width="70" x="256" y="488.7578"/><text fill="#000000" font-family="sans-serif" font-size="14" lengthAdjust="spacingAndGlyphs" textLength="56" x="263" y="508.7529">Website</text><rect fill="#FEFECE" filter="url(#fbg13eahxc17u)" height="46.5938" style="stroke: #A80036; stroke-width: 1.5;" width="250" x="340" y="34.7031"/><text fill="#000000" font-family="sans-serif" font-size="14" lengthAdjust="spacingAndGlyphs" textLength="102" x="414" y="54.6982">webmention.io</text><text fill="#000000" font-family="sans-serif" font-size="14" lengthAdjust="spacingAndGlyphs" textLength="236" x="347" y="70.9951">Webmention Endpoint for Website</text><rect fill="#FEFECE" filter="url(#fbg13eahxc17u)" height="46.5938" style="stroke: #A80036; stroke-width: 1.5;" width="250" x="340" y="488.7578"/><text fill="#000000" font-family="sans-serif" font-size="14" lengthAdjust="spacingAndGlyphs" textLength="102" x="414" y="508.7529">webmention.io</text><text fill="#000000" font-family="sans-serif" font-size="14" lengthAdjust="spacingAndGlyphs" textLength="236" x="347" y="525.0498">Webmention Endpoint for Website</text><rect fill="#FEFECE" filter="url(#fbg13eahxc17u)" height="30.2969" style="stroke: #A80036; stroke-width: 1.5;" width="58" x="657" y="51"/><text fill="#000000" font-family="sans-serif" font-size="14" lengthAdjust="spacingAndGlyphs" textLength="44" x="664" y="70.9951">Zapier</text><rect fill="#FEFECE" filter="url(#fbg13eahxc17u)" height="30.2969" style="stroke: #A80036; stroke-width: 1.5;" width="58" x="657" y="488.7578"/><text fill="#000000" font-family="sans-serif" font-size="14" lengthAdjust="spacingAndGlyphs" textLength="44" x="664" y="508.7529">Zapier</text><rect fill="#FEFECE" filter="url(#fbg13eahxc17u)" height="30.2969" style="stroke: #A80036; stroke-width: 1.5;" width="55" x="992.5" y="51"/><text fill="#000000" font-family="sans-serif" font-size="14" lengthAdjust="spacingAndGlyphs" textLength="41" x="999.5" y="70.9951">Netlify</text><rect fill="#FEFECE" filter="url(#fbg13eahxc17u)" height="30.2969" style="stroke: #A80036; stroke-width: 1.5;" width="55" x="992.5" y="488.7578"/><text fill="#000000" font-family="sans-serif" font-size="14" lengthAdjust="spacingAndGlyphs" textLength="41" x="999.5" y="508.7529">Netlify</text><rect fill="#FEFECE" filter="url(#fbg13eahxc17u)" height="30.2969" style="stroke: #A80036; stroke-width: 1.5;" width="50" x="1265" y="51"/><text fill="#000000" font-family="sans-serif" font-size="14" lengthAdjust="spacingAndGlyphs" textLength="36" x="1272" y="70.9951">hugo</text><rect fill="#FEFECE" filter="url(#fbg13eahxc17u)" height="30.2969" style="stroke: #A80036; stroke-width: 1.5;" width="50" x="1265" y="488.7578"/><text fill="#000000" font-family="sans-serif" font-size="14" lengthAdjust="spacingAndGlyphs" textLength="36" x="1272" y="508.7529">hugo</text><rect fill="#FFFFFF" filter="url(#fbg13eahxc17u)" height="29.1328" style="stroke: #A80036; stroke-width: 1.0;" width="10" x="462" y="146.5625"/><rect fill="#FFFFFF" filter="url(#fbg13eahxc17u)" height="29.1328" style="stroke: #A80036; stroke-width: 1.0;" width="10" x="462" y="330.2266"/><rect fill="#FFFFFF" filter="url(#fbg13eahxc17u)" height="29.1328" style="stroke: #A80036; stroke-width: 1.0;" width="10" x="683" y="175.6953"/><rect fill="#FFFFFF" filter="url(#fbg13eahxc17u)" height="237.7969" style="stroke: #A80036; stroke-width: 1.0;" width="10" x="1017" y="204.8281"/><rect fill="#FFFFFF" filter="url(#fbg13eahxc17u)" height="179.5313" style="stroke: #A80036; stroke-width: 1.0;" width="10" x="1287" y="233.9609"/><rect fill="#FFFFFF" filter="url(#fbg13eahxc17u)" height="63.3984" style="stroke: #A80036; stroke-width: 1.0;" width="10" x="1292" y="295.9609"/><polygon fill="#A80036" points="36,113.4297,26,117.4297,36,121.4297,32,117.4297" style="stroke: #A80036; stroke-width: 1.0;"/><line style="stroke: #A80036; stroke-width: 1.0; stroke-dasharray: 2.0,2.0;" x1="30" x2="292" y1="117.4297" y2="117.4297"/><text fill="#000000" font-family="sans-serif" font-size="13" lengthAdjust="spacingAndGlyphs" textLength="132" x="42" y="112.3638">Browses the Website</text><polygon fill="#A80036" points="450,142.5625,460,146.5625,450,150.5625,454,146.5625" style="stroke: #A80036; stroke-width: 1.0;"/><line style="stroke: #A80036; stroke-width: 1.0;" x1="25" x2="456" y1="146.5625" y2="146.5625"/><text fill="#000000" font-family="sans-serif" font-size="13" lengthAdjust="spacingAndGlyphs" textLength="275" x="32" y="141.4966">Sends a Webmention TO a post on Website</text><polygon fill="#A80036" points="671,171.6953,681,175.6953,671,179.6953,675,175.6953" style="stroke: #A80036; stroke-width: 1.0;"/><line style="stroke: #A80036; stroke-width: 1.0;" x1="467" x2="677" y1="175.6953" y2="175.6953"/><text fill="#000000" font-family="sans-serif" font-size="13" lengthAdjust="spacingAndGlyphs" textLength="192" x="474" y="170.6294">POST request to trigger a Zap</text><polygon fill="#A80036" points="1005,200.8281,1015,204.8281,1005,208.8281,1009,204.8281" style="stroke: #A80036; stroke-width: 1.0;"/><line style="stroke: #A80036; stroke-width: 1.0;" x1="688" x2="1011" y1="204.8281" y2="204.8281"/><text fill="#000000" font-family="sans-serif" font-size="13" lengthAdjust="spacingAndGlyphs" textLength="305" x="695" y="199.7622">Zap creates a POST request to trigger site build</text><polygon fill="#A80036" points="1275,229.9609,1285,233.9609,1275,237.9609,1279,233.9609" style="stroke: #A80036; stroke-width: 1.0;"/><line style="stroke: #A80036; stroke-width: 1.0;" x1="1027" x2="1281" y1="233.9609" y2="233.9609"/><text fill="#000000" font-family="sans-serif" font-size="13" lengthAdjust="spacingAndGlyphs" textLength="100" x="1034" y="228.895">Build command</text><line style="stroke: #A80036; stroke-width: 1.0;" x1="1297" x2="1344" y1="283.0938" y2="283.0938"/><line style="stroke: #A80036; stroke-width: 1.0;" x1="1344" x2="1344" y1="283.0938" y2="296.0938"/><line style="stroke: #A80036; stroke-width: 1.0;" x1="1303" x2="1344" y1="296.0938" y2="296.0938"/><polygon fill="#A80036" points="1313,292.0938,1303,296.0938,1313,300.0938,1309,296.0938" style="stroke: #A80036; stroke-width: 1.0;"/><text fill="#000000" font-family="sans-serif" font-size="13" lengthAdjust="spacingAndGlyphs" textLength="142" x="1309" y="278.0278">Loop through all posts</text><polygon fill="#A80036" points="483,326.2266,473,330.2266,483,334.2266,479,330.2266" style="stroke: #A80036; stroke-width: 1.0;"/><line style="stroke: #A80036; stroke-width: 1.0; stroke-dasharray: 2.0,2.0;" x1="477" x2="1291" y1="330.2266" y2="330.2266"/><text fill="#000000" font-family="sans-serif" font-size="13" lengthAdjust="spacingAndGlyphs" textLength="336" x="489" y="325.1606">GET request to get each post's Webmention as JSON</text><polygon fill="#A80036" points="1275,355.3594,1285,359.3594,1275,363.3594,1279,359.3594" style="stroke: #A80036; stroke-width: 1.0;"/><line style="stroke: #A80036; stroke-width: 1.0;" x1="467" x2="1281" y1="359.3594" y2="359.3594"/><text fill="#000000" font-family="sans-serif" font-size="13" lengthAdjust="spacingAndGlyphs" textLength="265" x="474" y="354.2935">JSON containing that post's Webmentions</text><polygon fill="#A80036" points="1038,409.4922,1028,413.4922,1038,417.4922,1034,413.4922" style="stroke: #A80036; stroke-width: 1.0;"/><line style="stroke: #A80036; stroke-width: 1.0; stroke-dasharray: 2.0,2.0;" x1="1032" x2="1291" y1="413.4922" y2="413.4922"/><text fill="#000000" font-family="sans-serif" font-size="13" lengthAdjust="spacingAndGlyphs" textLength="236" x="1044" y="408.4263">Done building with new Webmentions</text><polygon fill="#A80036" points="304,438.625,294,442.625,304,446.625,300,442.625" style="stroke: #A80036; stroke-width: 1.0;"/><line style="stroke: #A80036; stroke-width: 1.0;" x1="298" x2="1021" y1="442.625" y2="442.625"/><text fill="#000000" font-family="sans-serif" font-size="13" lengthAdjust="spacingAndGlyphs" textLength="97" x="310" y="437.5591">Deploy on CDN</text><polygon fill="#A80036" points="36,467.7578,26,471.7578,36,475.7578,32,471.7578" style="stroke: #A80036; stroke-width: 1.0;"/><line style="stroke: #A80036; stroke-width: 1.0; stroke-dasharray: 2.0,2.0;" x1="30" x2="292" y1="471.7578" y2="471.7578"/><text fill="#000000" font-family="sans-serif" font-size="13" lengthAdjust="spacingAndGlyphs" textLength="244" x="42" y="466.6919">Sees the Webmention show up on site</text><!--
@startuml
actor Bob
Bob <- - Website : Browses the Website
Bob -> "webmention.io\nWebmention Endpoint for Website" as wm : Sends a Webmention TO a post on Website
activate wm
wm -> "Zapier" as zap : POST request to trigger a Zap
deactivate wm
activate zap
zap -> Netlify : Zap creates a POST request to trigger site build
deactivate zap
activate Netlify
Netlify -> hugo : Build command
activate hugo
|||
hugo -> hugo : Loop through all posts
activate hugo
wm <- - hugo : GET request to get each post's Webmention as JSON
activate wm
wm -> hugo : JSON containing that post's Webmentions
deactivate wm
deactivate hugo
|||
Netlify <- - hugo : Done building with new Webmentions
deactivate hugo
Netlify -> Website : Deploy on CDN
deactivate Netlify
Bob <- - Website : Sees the Webmention show up on site
@enduml

PlantUML version 1.2018.04beta2(Unknown compile time)
(GPL source distribution)
Java Runtime: OpenJDK Runtime Environment
JVM: OpenJDK 64-Bit Server VM
Java Version: 1.7.0_65-mockbuild_2014_07_14_06_19-b00
Operating System: Linux
OS Version: 2.6.32-642.6.2.el6.x86_64
Default Encoding: UTF-8
Language: en
Country: US
--></g></svg>