<?xml version="1.0" standalone="no"?>
<!DOCTYPE svg PUBLIC "-//W3C//DTD SVG 20010904//EN"
 "http://www.w3.org/TR/2001/REC-SVG-20010904/DTD/svg10.dtd">
<svg version="1.0" xmlns="http://www.w3.org/2000/svg"
 width="300.000000pt" height="300.000000pt" viewBox="0 0 300.000000 300.000000"
 preserveAspectRatio="xMidYMid meet">
<metadata>
Created by potrace 1.11, written by Peter Selinger 2001-2013
</metadata>
<g transform="translate(0.000000,300.000000) scale(0.100000,-0.100000)"
fill="#000000" stroke="none">
<path d="M549 2983 c0 -10 -1 -94 -1 -188 l0 -170 -62 -24 c-89 -35 -158 -86
-232 -173 -83 -97 -124 -219 -129 -378 -3 -115 14 -203 56 -288 56 -115 121
-179 410 -404 134 -104 288 -229 306 -249 50 -55 74 -148 59 -228 -29 -149
-224 -213 -394 -129 -41 21 -126 102 -150 143 -11 19 -13 19 -79 -16 -176 -93
-283 -155 -283 -165 0 -6 18 -35 40 -65 114 -153 240 -240 417 -288 l42 -11
-1 -148 c0 -81 0 -159 1 -175 l1 -27 182 2 183 3 0 179 0 179 55 14 c165 42
333 202 385 366 29 91 36 133 36 228 0 149 -49 284 -146 400 -57 70 -74 84
-400 336 -121 94 -230 185 -243 202 -93 127 -53 310 75 349 112 33 226 -7 288
-101 l17 -27 62 34 c33 19 86 48 116 65 30 17 85 47 122 68 l67 36 -36 44
c-93 114 -221 202 -343 237 l-56 16 1 185 0 185 -182 0 c-167 0 -183 -1 -184
-17z"/>
<path d="M2275 2098 c-95 -8 -127 -15 -185 -37 -161 -61 -276 -179 -328 -336
-42 -125 -50 -213 -50 -540 0 -375 12 -472 81 -614 59 -124 186 -229 327 -271
92 -28 112 -30 230 -30 220 -1 404 76 535 222 75 84 75 81 -6 135 -39 26 -78
53 -87 58 -9 6 -50 32 -90 59 l-73 49 -17 -24 c-88 -127 -249 -177 -370 -115
-74 38 -99 120 -101 328 l-2 148 413 2 413 3 -1 140 c0 162 -8 270 -24 340 -7
28 -14 61 -16 75 -2 14 -22 62 -44 106 -104 213 -335 328 -605 302z m169 -356
c37 -31 54 -56 67 -97 18 -58 19 -61 24 -157 l5 -88 -200 0 c-153 0 -200 3
-201 13 -1 6 -1 41 0 77 3 125 44 229 104 262 55 30 161 25 201 -10z"/>
</g>
</svg>
