<?xml version="1.0" encoding="UTF-8" standalone="no"?><svg xmlns="http://www.w3.org/2000/svg" xmlns:xlink="http://www.w3.org/1999/xlink" contentScriptType="application/ecmascript" contentStyleType="text/css" height="134px" preserveAspectRatio="none" style="width:170px;height:134px;" version="1.1" viewBox="0 0 170 134" width="170px" zoomAndPan="magnify"><defs><filter height="300%" id="fz0jnej1b2o64" width="300%" x="-1" y="-1"><feGaussianBlur result="blurOut" stdDeviation="2.0"/><feColorMatrix in="blurOut" result="blurOut2" type="matrix" values="0 0 0 0 0 0 0 0 0 0 0 0 0 0 0 0 0 0 .4 0"/><feOffset dx="4.0" dy="4.0" in="blurOut2" result="blurOut3"/><feBlend in="SourceGraphic" in2="blurOut3" mode="normal"/></filter></defs><g><ellipse cx="84.5" cy="20" fill="#000000" filter="url(#fz0jnej1b2o64)" rx="10" ry="10" style="stroke: none; stroke-width: 1.0;"/><rect fill="#FEFECE" filter="url(#fz0jnej1b2o64)" height="33.9688" rx="12.5" ry="12.5" style="stroke: #A80036; stroke-width: 1.5;" width="149" x="10" y="50"/><a target="_parent" xlink:actuate="onRequest" xlink:href="http://plantuml.com" xlink:show="new" xlink:title="http://plantuml.com" xlink:type="simple"><text fill="#0000FF" font-family="sans-serif" font-size="12" lengthAdjust="spacingAndGlyphs" text-decoration="underline" textLength="129" x="20" y="71.1387">PlantUML Homepage</text><line style="stroke: #0000FF; stroke-width: 1.0;" x1="20" x2="149" y1="73.1387" y2="73.1387"/></a><ellipse cx="84.5" cy="113.9688" fill="none" filter="url(#fz0jnej1b2o64)" rx="10" ry="10" style="stroke: #000000; stroke-width: 1.0;"/><ellipse cx="85" cy="114.4688" fill="#000000" filter="url(#fz0jnej1b2o64)" rx="6" ry="6" style="stroke: none; stroke-width: 1.0;"/><line style="stroke: #A80036; stroke-width: 1.5;" x1="84.5" x2="84.5" y1="30" y2="50"/><polygon fill="#A80036" points="80.5,40,84.5,50,88.5,40,84.5,44" style="stroke: #A80036; stroke-width: 1.0;"/><line style="stroke: #A80036; stroke-width: 1.5;" x1="84.5" x2="84.5" y1="83.9688" y2="103.9688"/><polygon fill="#A80036" points="80.5,93.9688,84.5,103.9688,88.5,93.9688,84.5,97.9688" style="stroke: #A80036; stroke-width: 1.0;"/><!--
@startuml
skinparam svgLinkTarget _parent
start
:[[http://plantuml.com PlantUML Homepage]];
stop
@enduml

PlantUML version 1.2018.14(Fri Dec 21 11:33:16 EST 2018)
(GPL source distribution)
Java Runtime: OpenJDK Runtime Environment
JVM: OpenJDK 64-Bit Server VM
Java Version: 1.8.0_91-b14
Operating System: Linux
OS Version: 2.6.32-642.6.2.el6.x86_64
Default Encoding: UTF-8
Language: en
Country: US
--></g></svg>