<?xml version="1.0" encoding="UTF-8" standalone="no"?><svg xmlns="http://www.w3.org/2000/svg" xmlns:xlink="http://www.w3.org/1999/xlink" contentScriptType="application/ecmascript" contentStyleType="text/css" height="219px" preserveAspectRatio="none" style="width:156px;height:219px;" version="1.1" viewBox="0 0 156 219" width="156px" zoomAndPan="magnify"><defs><filter height="300%" id="fy8dfm3x7c88d" width="300%" x="-1" y="-1"><feGaussianBlur result="blurOut" stdDeviation="2.0"/><feColorMatrix in="blurOut" result="blurOut2" type="matrix" values="0 0 0 0 0 0 0 0 0 0 0 0 0 0 0 0 0 0 .4 0"/><feOffset dx="4.0" dy="4.0" in="blurOut2" result="blurOut3"/><feBlend in="SourceGraphic" in2="blurOut3" mode="normal"/></filter></defs><g><!--cluster a--><rect fill="#FFFFFF" filter="url(#fy8dfm3x7c88d)" height="184" style="stroke: #000000; stroke-width: 1.5;" width="123" x="22" y="24"/><text fill="#000000" font-family="sans-serif" font-size="14" font-weight="bold" lengthAdjust="spacingAndGlyphs" textLength="9" x="79" y="38.9951">a</text><!--entity b--><rect fill="#FEFECE" filter="url(#fy8dfm3x7c88d)" height="36.2969" style="stroke: #000000; stroke-width: 1.5;" width="29" x="38" y="60"/><text fill="#000000" font-family="sans-serif" font-size="14" lengthAdjust="spacingAndGlyphs" textLength="9" x="48" y="82.9951">b</text><!--entity c--><rect fill="#FEFECE" filter="url(#fy8dfm3x7c88d)" height="36.2969" style="stroke: #000000; stroke-width: 1.5;" width="28" x="101" y="60"/><text fill="#000000" font-family="sans-serif" font-size="14" lengthAdjust="spacingAndGlyphs" textLength="8" x="111" y="82.9951">c</text><!--entity d--><rect fill="#FEFECE" filter="url(#fy8dfm3x7c88d)" height="36.2969" style="stroke: #000000; stroke-width: 1.5;" width="29" x="38" y="156"/><text fill="#000000" font-family="sans-serif" font-size="14" lengthAdjust="spacingAndGlyphs" textLength="9" x="48" y="178.9951">d</text><!--link b to c--><!--link b to d--><!--
@startuml
rectangle a {
  rectangle b
  rectangle c
  rectangle d
}
@enduml

PlantUML version 1.2018.04beta2(Unknown compile time)
(GPL source distribution)
Java Runtime: OpenJDK Runtime Environment
JVM: OpenJDK 64-Bit Server VM
Java Version: 1.7.0_65-mockbuild_2014_07_14_06_19-b00
Operating System: Linux
OS Version: 2.6.32-642.6.2.el6.x86_64
Default Encoding: UTF-8
Language: en
Country: US
--></g></svg>